SSBD_presentaciones – Clasificación de usos del suelo en R
…
set.seed(137)
splits    <- initial_split(annotated_data_tbl, prop = .8, strata = class)
train_tbl <- training(splits)
test_tbl  <- testing(splits)

train_tbl

# A tibble: 718 × 16
   class      median.R median.G median.B stdev.R stdev.G stdev.B count.R count.G
   <chr>         <dbl>    <dbl>    <dbl>   <dbl>   <dbl>   <dbl>   <dbl>   <dbl>
 1 Agroganad…     80.0     139.     99.4    9.11    7.41    9.24   91385   91385
 2 Agroganad…     84.6     142.    103.     8.60    5.27    8.65   12609   12609
 3 Agroganad…     88.3     134.    100.    25.3    15.0    19.9   172767  172767
 4 Agroganad…    106.      143.    111.    11.5     5.72    9.88    6848    6848
 5 Agroganad…    119.      146.    122.    23.9    15.8    18.8   170767  170767
 6 Agroganad…    150.      156.    144.    11.3     9.28   11.0    54059   54059
 7 Agroganad…     88.3     134.    100.    25.3    15.0    19.9   172767  172767
 8 Agroganad…     88.3     134.    100.    25.3    15.0    19.9   172767  172767
 9 Agroganad…     78.5     135.     97.3    9.54    7.61    8.53    6396    6396
10 Agroganad…     78.8     136.     96.0   11.9    12.4     9.97   10021   10021
# ℹ 708 more rows
# ℹ 7 more variables: count.B <dbl>, min.R <dbl>, min.G <dbl>, min.B <dbl>,
#   max.R <dbl>, max.G <dbl>, max.B <dbl>

test_tbl

# A tibble: 181 × 16
   class      median.R median.G median.B stdev.R stdev.G stdev.B count.R count.G
   <chr>         <dbl>    <dbl>    <dbl>   <dbl>   <dbl>   <dbl>   <dbl>   <dbl>
 1 Arbolado       81.5     99.8     91.1   20.2    21.6    22.7      703     703
 2 Arbolado       35.1     53.5     60.8   19.2    20.4    21.9      245     245
 3 Arbolado      130.     137.     128.    26.9    24.2    29.0      394     394
 4 Arbolado       66.5     80.2     68.3   18.2    20.7    18.9     1010    1010
 5 Agroganad…     80.0    139.      99.4    9.11    7.41    9.24   91385   91385
 6 Agroganad…    109.     143.     116.    24.7    14.7    18.7    58811   58811
 7 Arbolado       82.7    102.      92.0   20.5    21.0    21.3      473     473
 8 Arbolado       73.0     98.5     85.3   20.8    23.4    20.7      750     750
 9 Arbolado       58.2     87.5     76.7   17.0    21.5    19.7      647     647
10 Arbolado       46.9     62.1     58.5   16.0    19.6    18.2      243     243
# ℹ 171 more rows
# ℹ 7 more variables: count.B <dbl>, min.R <dbl>, min.G <dbl>, min.B <dbl>,
#   max.R <dbl>, max.G <dbl>, max.B <dbl>
…
base_rec <- recipe(class ~ ., data = train_tbl) |> 
  step_zv(all_predictors()) |>  
  step_lincomb(all_predictors())

base_rec |> prep() |> juice()

# A tibble: 718 × 14
   median.R median.G median.B stdev.R stdev.G stdev.B count.R min.R min.G min.B
      <dbl>    <dbl>    <dbl>   <dbl>   <dbl>   <dbl>   <dbl> <dbl> <dbl> <dbl>
 1     80.0     139.     99.4    9.11    7.41    9.24   91385  13.0  32.8 26.5 
 2     84.6     142.    103.     8.60    5.27    8.65   12609  53.8 103.  65.2 
 3     88.3     134.    100.    25.3    15.0    19.9   172767  11    35.1  6.72
 4    106.      143.    111.    11.5     5.72    9.88    6848  27.7  48.1 52.5 
 5    119.      146.    122.    23.9    15.8    18.8   170767  14.2  37.4 14   
 6    150.      156.    144.    11.3     9.28   11.0    54059  20.7  39.0 27.8 
 7     88.3     134.    100.    25.3    15.0    19.9   172767  11    35.1  6.72
 8     88.3     134.    100.    25.3    15.0    19.9   172767  11    35.1  6.72
 9     78.5     135.     97.3    9.54    7.61    8.53    6396  20.1  39.9 32.9 
10     78.8     136.     96.0   11.9    12.4     9.97   10021  16.9  39.2 32.2 
# ℹ 708 more rows
# ℹ 4 more variables: max.R <dbl>, max.G <dbl>, max.B <dbl>, class <fct>
…
